{"failedCount":0,"prefixedPath":"src\/test\/java\/tests\/getUsers.feature","packageQualifiedName":"src.test.java.tests.getUsers","loopIndex":-1,"relativePath":"src\/test\/java\/tests\/getUsers.feature","scenarioResults":[{"sectionIndex":0,"stepResults":[{"result":{"nanos":263003735,"millis":263.003735,"status":"passed"},"step":{"background":true,"line":3,"prefix":"*","index":0,"text":"configure ssl = true"}},{"result":{"nanos":1580681,"millis":1.580681,"status":"passed"},"step":{"background":true,"line":4,"prefix":"*","index":1,"text":"url 'https:\/\/reqres.in\/api'"}},{"result":{"nanos":512108,"millis":0.512108,"status":"passed"},"step":{"line":8,"prefix":"*","index":0,"text":"path '\/users?page=2'"}},{"result":{"nanos":591608606,"millis":591.608606,"status":"passed"},"step":{"line":9,"prefix":"*","index":1,"text":"method GET"},"stepLog":"17:56:01.219 request:\n1 > GET https:\/\/reqres.in\/api\/users%3Fpage=2\n1 > Host: reqres.in\n1 > Connection: Keep-Alive\n1 > User-Agent: Apache-HttpClient\/4.5.13 (Java\/1.8.0_321)\n1 > Accept-Encoding: gzip,deflate\n\n\n17:56:01.687 response time in milliseconds: 463\n1 < 200\n1 < Date: Fri, 23 Sep 2022 12:56:01 GMT\n1 < Content-Type: application\/json; charset=utf-8\n1 < Transfer-Encoding: chunked\n1 < Connection: keep-alive\n1 < X-Powered-By: Express\n1 < Access-Control-Allow-Origin: *\n1 < Etag: W\/\"2c1-N6Rqerxquq2kgQhL51EiSg4x0R8\"\n1 < Via: 1.1 vegur\n1 < Cache-Control: max-age=14400\n1 < CF-Cache-Status: HIT\n1 < Age: 291\n1 < Report-To: {\"endpoints\":[{\"url\":\"https:\\\/\\\/a.nel.cloudflare.com\\\/report\\\/v3?s=UYR0T8pntyKdGhtL8%2BPJPKv6NQ720aK9Xb3A6EBJqICvSn5nb1loJVfG1%2FErxWgoITU55CsxOFuvp4Gi21DEyw89EX1Qf5jgMm11PMkVBeaRqJ%2BnHKN6Altgvw%3D%3D\"}],\"group\":\"cf-nel\",\"max_age\":604800}\n1 < NEL: {\"success_fraction\":0,\"report_to\":\"cf-nel\",\"max_age\":604800}\n1 < Vary: Accept-Encoding\n1 < Server: cloudflare\n1 < CF-RAY: 74f370234a3ec8f4-KHI\n{\"page\":1,\"per_page\":6,\"total\":12,\"total_pages\":2,\"data\":[{\"id\":1,\"name\":\"cerulean\",\"year\":2000,\"color\":\"#98B2D1\",\"pantone_value\":\"15-4020\"},{\"id\":2,\"name\":\"fuchsia rose\",\"year\":2001,\"color\":\"#C74375\",\"pantone_value\":\"17-2031\"},{\"id\":3,\"name\":\"true red\",\"year\":2002,\"color\":\"#BF1932\",\"pantone_value\":\"19-1664\"},{\"id\":4,\"name\":\"aqua sky\",\"year\":2003,\"color\":\"#7BC4C4\",\"pantone_value\":\"14-4811\"},{\"id\":5,\"name\":\"tigerlily\",\"year\":2004,\"color\":\"#E2583E\",\"pantone_value\":\"17-1456\"},{\"id\":6,\"name\":\"blue turquoise\",\"year\":2005,\"color\":\"#53B0AE\",\"pantone_value\":\"15-5217\"}],\"support\":{\"url\":\"https:\/\/reqres.in\/#support-heading\",\"text\":\"To keep ReqRes free, contributions towards server costs are appreciated!\"}}\n\n"},{"result":{"nanos":77580,"millis":0.07758,"status":"passed"},"step":{"line":10,"prefix":"*","index":2,"text":"status 200"}},{"result":{"nanos":79796480,"millis":79.79648,"status":"passed"},"step":{"line":11,"prefix":"*","index":3,"text":"print '=============================================='"},"stepLog":"17:56:01.821 [print] ============================================== \n"},{"result":{"nanos":1000906,"millis":1.000906,"status":"passed"},"step":{"line":12,"prefix":"*","index":4,"text":"print 'Get All Users'"},"stepLog":"17:56:01.823 [print] Get All Users \n"},{"result":{"nanos":365396,"millis":0.365396,"status":"passed"},"step":{"line":13,"prefix":"*","index":5,"text":"print '=============================================='"},"stepLog":"17:56:01.824 [print] ============================================== \n"},{"result":{"nanos":5795717,"millis":5.795717,"status":"passed"},"step":{"line":14,"prefix":"*","index":6,"text":"print response"},"stepLog":"17:56:01.830 [print] {\n  \"page\": 1,\n  \"per_page\": 6,\n  \"total\": 12,\n  \"total_pages\": 2,\n  \"data\": [\n    {\n      \"id\": 1,\n      \"name\": \"cerulean\",\n      \"year\": 2000,\n      \"color\": \"#98B2D1\",\n      \"pantone_value\": \"15-4020\"\n    },\n    {\n      \"id\": 2,\n      \"name\": \"fuchsia rose\",\n      \"year\": 2001,\n      \"color\": \"#C74375\",\n      \"pantone_value\": \"17-2031\"\n    },\n    {\n      \"id\": 3,\n      \"name\": \"true red\",\n      \"year\": 2002,\n      \"color\": \"#BF1932\",\n      \"pantone_value\": \"19-1664\"\n    },\n    {\n      \"id\": 4,\n      \"name\": \"aqua sky\",\n      \"year\": 2003,\n      \"color\": \"#7BC4C4\",\n      \"pantone_value\": \"14-4811\"\n    },\n    {\n      \"id\": 5,\n      \"name\": \"tigerlily\",\n      \"year\": 2004,\n      \"color\": \"#E2583E\",\n      \"pantone_value\": \"17-1456\"\n    },\n    {\n      \"id\": 6,\n      \"name\": \"blue turquoise\",\n      \"year\": 2005,\n      \"color\": \"#53B0AE\",\n      \"pantone_value\": \"15-5217\"\n    }\n  ],\n  \"support\": {\n    \"url\": \"https:\/\/reqres.in\/#support-heading\",\n    \"text\": \"To keep ReqRes free, contributions towards server costs are appreciated!\"\n  }\n}\n \n"}],"executorName":"main","line":7,"name":"Get All Users","description":"","durationMillis":943.741209,"startTime":1663937760870,"failed":false,"refId":"[1:7]","endTime":1663937761830,"exampleIndex":-1}],"callDepth":0,"name":"Test Get Users API","description":"","resultDate":"2022-09-23 05:56:01 PM","durationMillis":943.741209,"passedCount":1}