{"failedCount":0,"prefixedPath":"src\/test\/java\/tests\/getUsers.feature","packageQualifiedName":"src.test.java.tests.getUsers","loopIndex":-1,"relativePath":"src\/test\/java\/tests\/getUsers.feature","scenarioResults":[{"sectionIndex":1,"stepResults":[{"result":{"nanos":371088105,"millis":371.088105,"status":"passed"},"step":{"background":true,"line":3,"prefix":"*","index":0,"text":"configure ssl = true"}},{"result":{"nanos":1478159,"millis":1.478159,"status":"passed"},"step":{"background":true,"line":4,"prefix":"*","index":1,"text":"url 'https:\/\/reqres.in\/api'"}},{"result":{"nanos":367985,"millis":0.367985,"status":"passed"},"step":{"line":17,"prefix":"*","index":0,"text":"path '\/users?page=2'"}},{"result":{"nanos":1317038,"millis":1.317038,"status":"passed"},"step":{"line":18,"prefix":"*","index":1,"text":"params '1'"},"stepLog":"18:45:52.181 did not evaluate to map '1': [type: STRING, value: 1]\n"},{"result":{"nanos":1043357124,"millis":1043.357124,"status":"passed"},"step":{"line":19,"prefix":"*","index":2,"text":"method GET"},"stepLog":"18:45:52.285 request:\n1 > GET https:\/\/reqres.in\/api\/users%3Fpage=2\n1 > Host: reqres.in\n1 > Connection: Keep-Alive\n1 > User-Agent: Apache-HttpClient\/4.5.13 (Java\/1.8.0_321)\n1 > Accept-Encoding: gzip,deflate\n\n\n18:45:53.183 response time in milliseconds: 891\n1 < 200\n1 < Date: Fri, 23 Sep 2022 13:45:53 GMT\n1 < Content-Type: application\/json; charset=utf-8\n1 < Transfer-Encoding: chunked\n1 < Connection: keep-alive\n1 < X-Powered-By: Express\n1 < Access-Control-Allow-Origin: *\n1 < Etag: W\/\"2c1-N6Rqerxquq2kgQhL51EiSg4x0R8\"\n1 < Via: 1.1 vegur\n1 < Cache-Control: max-age=14400\n1 < CF-Cache-Status: HIT\n1 < Age: 3283\n1 < Report-To: {\"endpoints\":[{\"url\":\"https:\\\/\\\/a.nel.cloudflare.com\\\/report\\\/v3?s=c%2Fq%2FnMBMpm9iGbhxn%2BtkX4U%2FV9qWDNfcWHHrfrJjN6Kd2L4HB%2B2jYSKbFOErkgmotXN0LliJxHr1ONiK7eNfSXYgP9r5GfOZybDX6TcRomrrfjPJLPm6pKEV0A%3D%3D\"}],\"group\":\"cf-nel\",\"max_age\":604800}\n1 < NEL: {\"success_fraction\":0,\"report_to\":\"cf-nel\",\"max_age\":604800}\n1 < Vary: Accept-Encoding\n1 < Server: cloudflare\n1 < CF-RAY: 74f3b92c2cb2c8f4-KHI\n{\"page\":1,\"per_page\":6,\"total\":12,\"total_pages\":2,\"data\":[{\"id\":1,\"name\":\"cerulean\",\"year\":2000,\"color\":\"#98B2D1\",\"pantone_value\":\"15-4020\"},{\"id\":2,\"name\":\"fuchsia rose\",\"year\":2001,\"color\":\"#C74375\",\"pantone_value\":\"17-2031\"},{\"id\":3,\"name\":\"true red\",\"year\":2002,\"color\":\"#BF1932\",\"pantone_value\":\"19-1664\"},{\"id\":4,\"name\":\"aqua sky\",\"year\":2003,\"color\":\"#7BC4C4\",\"pantone_value\":\"14-4811\"},{\"id\":5,\"name\":\"tigerlily\",\"year\":2004,\"color\":\"#E2583E\",\"pantone_value\":\"17-1456\"},{\"id\":6,\"name\":\"blue turquoise\",\"year\":2005,\"color\":\"#53B0AE\",\"pantone_value\":\"15-5217\"}],\"support\":{\"url\":\"https:\/\/reqres.in\/#support-heading\",\"text\":\"To keep ReqRes free, contributions towards server costs are appreciated!\"}}\n\n"},{"result":{"nanos":13876,"millis":0.013876,"status":"passed"},"step":{"line":20,"prefix":"*","index":3,"text":"status 200"}},{"result":{"nanos":142719869,"millis":142.719869,"status":"passed"},"step":{"line":21,"prefix":"*","index":4,"text":"print '=============================================='"},"stepLog":"18:45:53.364 [print] ============================================== \n"},{"result":{"nanos":2578880,"millis":2.57888,"status":"passed"},"step":{"line":22,"prefix":"*","index":5,"text":"print 'Get User by ID'"},"stepLog":"18:45:53.370 [print] Get User by ID \n"},{"result":{"nanos":1014328,"millis":1.014328,"status":"passed"},"step":{"line":23,"prefix":"*","index":6,"text":"print '=============================================='"},"stepLog":"18:45:53.371 [print] ============================================== \n"},{"result":{"nanos":26497928,"millis":26.497928,"status":"passed"},"step":{"line":24,"prefix":"*","index":7,"text":"print response"},"stepLog":"18:45:53.398 [print] {\n  \"page\": 1,\n  \"per_page\": 6,\n  \"total\": 12,\n  \"total_pages\": 2,\n  \"data\": [\n    {\n      \"id\": 1,\n      \"name\": \"cerulean\",\n      \"year\": 2000,\n      \"color\": \"#98B2D1\",\n      \"pantone_value\": \"15-4020\"\n    },\n    {\n      \"id\": 2,\n      \"name\": \"fuchsia rose\",\n      \"year\": 2001,\n      \"color\": \"#C74375\",\n      \"pantone_value\": \"17-2031\"\n    },\n    {\n      \"id\": 3,\n      \"name\": \"true red\",\n      \"year\": 2002,\n      \"color\": \"#BF1932\",\n      \"pantone_value\": \"19-1664\"\n    },\n    {\n      \"id\": 4,\n      \"name\": \"aqua sky\",\n      \"year\": 2003,\n      \"color\": \"#7BC4C4\",\n      \"pantone_value\": \"14-4811\"\n    },\n    {\n      \"id\": 5,\n      \"name\": \"tigerlily\",\n      \"year\": 2004,\n      \"color\": \"#E2583E\",\n      \"pantone_value\": \"17-1456\"\n    },\n    {\n      \"id\": 6,\n      \"name\": \"blue turquoise\",\n      \"year\": 2005,\n      \"color\": \"#53B0AE\",\n      \"pantone_value\": \"15-5217\"\n    }\n  ],\n  \"support\": {\n    \"url\": \"https:\/\/reqres.in\/#support-heading\",\n    \"text\": \"To keep ReqRes free, contributions towards server costs are appreciated!\"\n  }\n}\n \n"}],"executorName":"main","line":16,"name":"Get User by ID","description":"","durationMillis":1590.433292,"startTime":1663940751790,"failed":false,"refId":"[2:16]","endTime":1663940753398,"exampleIndex":-1}],"callDepth":0,"name":"Test Get Users API","description":"","resultDate":"2022-09-23 06:45:53 PM","durationMillis":1590.433292,"passedCount":1}