{"failedCount":0,"prefixedPath":"src\/test\/java\/tests\/getUsers.feature","packageQualifiedName":"src.test.java.tests.getUsers","loopIndex":-1,"relativePath":"src\/test\/java\/tests\/getUsers.feature","scenarioResults":[{"sectionIndex":1,"stepResults":[{"result":{"nanos":370674984,"millis":370.674984,"status":"passed"},"step":{"background":true,"line":3,"prefix":"*","index":0,"text":"configure ssl = true"}},{"result":{"nanos":1508368,"millis":1.508368,"status":"passed"},"step":{"background":true,"line":4,"prefix":"*","index":1,"text":"url 'https:\/\/reqres.in\/api'"}},{"result":{"nanos":344939,"millis":0.344939,"status":"passed"},"step":{"line":17,"prefix":"*","index":0,"text":"path '\/users\/'"}},{"result":{"nanos":1382583,"millis":1.382583,"status":"passed"},"step":{"line":18,"prefix":"*","index":1,"text":"params '1'"},"stepLog":"18:46:39.143 did not evaluate to map '1': [type: STRING, value: 1]\n"},{"result":{"nanos":2787132195,"millis":2787.132195,"status":"passed"},"step":{"line":19,"prefix":"*","index":2,"text":"method GET"},"stepLog":"18:46:39.257 request:\n1 > GET https:\/\/reqres.in\/api\/users\n1 > Host: reqres.in\n1 > Connection: Keep-Alive\n1 > User-Agent: Apache-HttpClient\/4.5.13 (Java\/1.8.0_321)\n1 > Accept-Encoding: gzip,deflate\n\n\n18:46:41.840 response time in milliseconds: 2574\n1 < 200\n1 < Date: Fri, 23 Sep 2022 13:46:41 GMT\n1 < Content-Type: application\/json; charset=utf-8\n1 < Transfer-Encoding: chunked\n1 < Connection: keep-alive\n1 < X-Powered-By: Express\n1 < Access-Control-Allow-Origin: *\n1 < Etag: W\/\"3e4-2RLXvr5wTg9YQ6aH95CkYoFNuO8\"\n1 < Via: 1.1 vegur\n1 < Cache-Control: max-age=14400\n1 < CF-Cache-Status: REVALIDATED\n1 < Report-To: {\"endpoints\":[{\"url\":\"https:\\\/\\\/a.nel.cloudflare.com\\\/report\\\/v3?s=0O8xUaddiDBPmxNZjj1OXQGODn0Ua5fw89EXh1QjxP6IXOzCGbiKDrOGVenPHpb2bYDjQPD9DkV11Too8nBtXww%2F6JhZyQMLHJ9cXcrdubkxCNhw%2BAuA6KE8Gw%3D%3D\"}],\"group\":\"cf-nel\",\"max_age\":604800}\n1 < NEL: {\"success_fraction\":0,\"report_to\":\"cf-nel\",\"max_age\":604800}\n1 < Vary: Accept-Encoding\n1 < Server: cloudflare\n1 < CF-RAY: 74f3ba4dc856c904-KHI\n{\"page\":1,\"per_page\":6,\"total\":12,\"total_pages\":2,\"data\":[{\"id\":1,\"email\":\"george.bluth@reqres.in\",\"first_name\":\"George\",\"last_name\":\"Bluth\",\"avatar\":\"https:\/\/reqres.in\/img\/faces\/1-image.jpg\"},{\"id\":2,\"email\":\"janet.weaver@reqres.in\",\"first_name\":\"Janet\",\"last_name\":\"Weaver\",\"avatar\":\"https:\/\/reqres.in\/img\/faces\/2-image.jpg\"},{\"id\":3,\"email\":\"emma.wong@reqres.in\",\"first_name\":\"Emma\",\"last_name\":\"Wong\",\"avatar\":\"https:\/\/reqres.in\/img\/faces\/3-image.jpg\"},{\"id\":4,\"email\":\"eve.holt@reqres.in\",\"first_name\":\"Eve\",\"last_name\":\"Holt\",\"avatar\":\"https:\/\/reqres.in\/img\/faces\/4-image.jpg\"},{\"id\":5,\"email\":\"charles.morris@reqres.in\",\"first_name\":\"Charles\",\"last_name\":\"Morris\",\"avatar\":\"https:\/\/reqres.in\/img\/faces\/5-image.jpg\"},{\"id\":6,\"email\":\"tracey.ramos@reqres.in\",\"first_name\":\"Tracey\",\"last_name\":\"Ramos\",\"avatar\":\"https:\/\/reqres.in\/img\/faces\/6-image.jpg\"}],\"support\":{\"url\":\"https:\/\/reqres.in\/#support-heading\",\"text\":\"To keep ReqRes free, contributions towards server costs are appreciated!\"}}\n\n"},{"result":{"nanos":50927,"millis":0.050927,"status":"passed"},"step":{"line":20,"prefix":"*","index":3,"text":"status 200"}},{"result":{"nanos":250193584,"millis":250.193584,"status":"passed"},"step":{"line":21,"prefix":"*","index":4,"text":"print '=============================================='"},"stepLog":"18:46:42.178 [print] ============================================== \n"},{"result":{"nanos":3642558,"millis":3.642558,"status":"passed"},"step":{"line":22,"prefix":"*","index":5,"text":"print 'Get User by ID'"},"stepLog":"18:46:42.184 [print] Get User by ID \n"},{"result":{"nanos":1391936,"millis":1.391936,"status":"passed"},"step":{"line":23,"prefix":"*","index":6,"text":"print '=============================================='"},"stepLog":"18:46:42.186 [print] ============================================== \n"},{"result":{"nanos":23839761,"millis":23.839761,"status":"passed"},"step":{"line":24,"prefix":"*","index":7,"text":"print response"},"stepLog":"18:46:42.210 [print] {\n  \"page\": 1,\n  \"per_page\": 6,\n  \"total\": 12,\n  \"total_pages\": 2,\n  \"data\": [\n    {\n      \"id\": 1,\n      \"email\": \"george.bluth@reqres.in\",\n      \"first_name\": \"George\",\n      \"last_name\": \"Bluth\",\n      \"avatar\": \"https:\/\/reqres.in\/img\/faces\/1-image.jpg\"\n    },\n    {\n      \"id\": 2,\n      \"email\": \"janet.weaver@reqres.in\",\n      \"first_name\": \"Janet\",\n      \"last_name\": \"Weaver\",\n      \"avatar\": \"https:\/\/reqres.in\/img\/faces\/2-image.jpg\"\n    },\n    {\n      \"id\": 3,\n      \"email\": \"emma.wong@reqres.in\",\n      \"first_name\": \"Emma\",\n      \"last_name\": \"Wong\",\n      \"avatar\": \"https:\/\/reqres.in\/img\/faces\/3-image.jpg\"\n    },\n    {\n      \"id\": 4,\n      \"email\": \"eve.holt@reqres.in\",\n      \"first_name\": \"Eve\",\n      \"last_name\": \"Holt\",\n      \"avatar\": \"https:\/\/reqres.in\/img\/faces\/4-image.jpg\"\n    },\n    {\n      \"id\": 5,\n      \"email\": \"charles.morris@reqres.in\",\n      \"first_name\": \"Charles\",\n      \"last_name\": \"Morris\",\n      \"avatar\": \"https:\/\/reqres.in\/img\/faces\/5-image.jpg\"\n    },\n    {\n      \"id\": 6,\n      \"email\": \"tracey.ramos@reqres.in\",\n      \"first_name\": \"Tracey\",\n      \"last_name\": \"Ramos\",\n      \"avatar\": \"https:\/\/reqres.in\/img\/faces\/6-image.jpg\"\n    }\n  ],\n  \"support\": {\n    \"url\": \"https:\/\/reqres.in\/#support-heading\",\n    \"text\": \"To keep ReqRes free, contributions towards server costs are appreciated!\"\n  }\n}\n \n"}],"executorName":"main","line":16,"name":"Get User by ID","description":"","durationMillis":3440.161835,"startTime":1663940798750,"failed":false,"refId":"[2:16]","endTime":1663940802211,"exampleIndex":-1}],"callDepth":0,"name":"Test Get Users API","description":"","resultDate":"2022-09-23 06:46:42 PM","durationMillis":3440.161835,"passedCount":1}